﻿{
  "$schema": "http://json.schemastore.org/launchsettings.json",
  "profiles": {
    "Otus.Teaching.Pcf.GivingToCustomer.IntegrationTests": {
      "commandName": "Project",
      "launchBrowser": true,
      "environmentVariables": {
        "ASPNETCORE_ENVIRONMENT": "Development"
      },
      "applicationUrl": "https://localhost:55537;http://localhost:55538"
    }
  }

}
